ATTACH_SCRIPT	JOURNAL_ENTRY_TITLE	JOURNAL_ENTRY_DESCRIPTION	IS_VISIBLE	PREREQUISITE_TASKS	EXCLUSION_TASKS	ALLOW_REPEATS	TASKS_ON_COMPLETE	TASKS_ON_FAIL	TASK_NAME	SHOW_SYSTEM_MESSAGES	MUSIC_ON_ACTIVATE	MUSIC_ON_COMPLETE	MUSIC_ON_FAILURE	TARGET	PARAMETER	GRANT_QUEST_ON_COMPLETE	GRANT_QUEST_ON_COMPLETE_SHOW_SYSTEM_MESSAGE	GRANT_QUEST_ON_FAIL	GRANT_QUEST_ON_FAIL_SHOW_SYSTEM_MESSAGE	SIGNALS_ON_COMPLETE	SIGNALS_ON_FAIL	CREATE_WAYPOINT	PLANET_NAME	LOCATION_X	LOCATION_Y	LOCATION_Z	INTERIOR_WAYPOINT_APPEARANCE	WAYPOINT_BUILDING_CELL_NAME	WAYPOINT_NAME	TARGET_SERVER_TEMPLATE	SOCIAL_GROUP	REQUIRED_REGION	COUNT	REWARD_CREDITS	TIMER_AMOUNT	SIGNAL_NAME	WAIT_MARKER_CREATE	WAIT_MARKER_TEMPLATE	WAIT_MARKER_PLANET_NAME	WAIT_MARKER_BUILDING	WAIT_MARKER_CELL_NAME	WAIT_MARKER_X	WAIT_MARKER_Y	WAIT_MARKER_Z	EXPERIENCE_TYPE	EXPERIENCE_AMOUNT	FACTION_NAME	FACTION_AMOUNT	BANK_CREDITS	LOOT_NAME	LOOT_COUNT	ITEM	WEAPON	COUNT_WEAPON	SPEED	DAMAGE	EFFICIENCY	ELEMENTAL_VALUE	ARMOR	COUNT_ARMOR	QUALITY	REWARD_BADGE
s	s	s	b	s	s	b	s	s	s	b	s	s	s	s	s	s	b	s	b	s	s	b	s	s	s	s	s	s	s	s	s	s	i	i	i	s	b	s	s	s	s	f	f	f	s	i	s	i	i	s	i	s	s	i	S	S	S	S	s	i	i	s
quest.task.ground.nothing			0			0	1			0							1		1			0	tatooine	0	0	0																																				
quest.task.ground.destroy_multi	@quest/ground/ep3_rryatt_krepauk_defeat_katarn:task01_journal_entry_title	@quest/ground/ep3_rryatt_krepauk_defeat_katarn:task01_journal_entry_description	1			0	2		krepauk_huntKatarn	1	sound/mus_rodian_quest_accept.snd	sound/mus_rodian_quest_sucess.snd					1		1			0	tatooine	0	0	0				ep3_rryatt_katarn			1	0	0																											
quest.task.ground.wait_for_signal	@quest/ground/ep3_rryatt_krepauk_defeat_katarn:task02_journal_entry_title	@quest/ground/ep3_rryatt_krepauk_defeat_katarn:task02_journal_entry_description	1			0	3		krepauk_katarnHuntCompleted	1							1		1			0	tatooine	0	0	0									0	krepauk_katarnHuntCompleted	0			0		0	0	0																		
quest.task.ground.reward			0			0	4			0							1		1			0	tatooine	0	0	0							1													0	Rebel	0	0		1		object/weapon/melee/special/ep3/wookiee_knuckler.iff	1	1	1	1	1		1	0.1	
quest.task.ground.reward			0			0	5			0							1		1			0	tatooine	0	0	0							1													0	Rebel	0	25000		1	object/tangible/furniture/ep3_rewards/ep3_kash_reward_trophy_katarn.iff		1	0.1	0.1	0.1	0.1		1	0.1	
quest.task.ground.reward			0			0	6			0							1		1			0	tatooine	0	0	0							1													0	Rebel	0	0		1	object/tangible/deed/vehicle_deed/barc_speeder_deed.iff		1	0.1	0.1	0.1	0.1		1	0.1	
quest.task.ground.complete_quest			0			0				0							1		1			0	tatooine	0	0	0																																				
